EESchema Schematic File Version 4
EELAYER 30 0
EELAYER END
$Descr A4 11693 8268
encoding utf-8
Sheet 1 1
Title ""
Date ""
Rev ""
Comp ""
Comment1 ""
Comment2 ""
Comment3 ""
Comment4 ""
$EndDescr
$Comp
L dipmulator:27256 U1
U 1 1 5FB4E068
P 1450 900
F 0 "U1" H 1450 1065 50  0000 C CNN
F 1 "27256" H 1450 974 50  0000 C CNN
F 2 "dipmulator:DIP-28W-SPECIAL_EMU" H 1450 900 50  0001 C CNN
F 3 "" H 1450 900 50  0001 C CNN
F 4 "BBL-132-T-E" H 1450 900 50  0001 C CNN "Product"
F 5 "farnell://2308421" H 1450 900 50  0001 C CNN "SKU"
	1    1450 900 
	1    0    0    -1  
$EndComp
Text Notes 1200 650  0    50   ~ 0
Emulated device
Text Notes 1900 750  0    50   ~ 0
A13: NC on 2764
Text Notes 1900 650  0    50   ~ 0
A14: PGM on 2764 (+5V)
$Comp
L dipmulator:74HC245 U2
U 1 1 5FB550C8
P 3300 1600
F 0 "U2" H 3550 2400 50  0000 C CNN
F 1 "74HC245" H 3550 2300 50  0000 C CNN
F 2 "Package_SO:SSOP-20_4.4x6.5mm_P0.65mm" H 3300 1600 50  0001 C CNN
F 3 "http://www.ti.com/lit/gpn/sn74HC245" H 3300 1600 50  0001 C CNN
F 4 "SN74LV245APWR" H 3300 1600 50  0001 C CNN "Product"
F 5 "farnell://3119570" H 3300 1600 50  0001 C CNN "SKU"
	1    3300 1600
	1    0    0    -1  
$EndComp
$Comp
L dipmulator:GND #PWR0101
U 1 1 5FB5683B
P 3300 2400
F 0 "#PWR0101" H 3300 2400 30  0001 C CNN
F 1 "GND" H 3300 2330 30  0001 C CNN
F 2 "" H 3300 2400 60  0000 C CNN
F 3 "" H 3300 2400 60  0000 C CNN
	1    3300 2400
	1    0    0    -1  
$EndComp
$Comp
L dipmulator:GND #PWR0102
U 1 1 5FB56B08
P 1050 2300
F 0 "#PWR0102" H 1050 2300 30  0001 C CNN
F 1 "GND" H 1050 2230 30  0001 C CNN
F 2 "" H 1050 2300 60  0000 C CNN
F 3 "" H 1050 2300 60  0000 C CNN
	1    1050 2300
	0    1    1    0   
$EndComp
Text Label 1050 1900 2    50   ~ 0
BUS_A0
Text Label 1050 2000 2    50   ~ 0
BUS_D0
Text Label 1050 2100 2    50   ~ 0
BUS_D1
Text Label 1050 2200 2    50   ~ 0
BUS_D2
Text Label 1850 2300 0    50   ~ 0
BUS_D3
Text Label 1850 2200 0    50   ~ 0
BUS_D4
Text Label 1850 2100 0    50   ~ 0
BUS_D5
Text Label 1850 2000 0    50   ~ 0
BUS_D6
Text Label 1850 1900 0    50   ~ 0
BUS_D7
Text Label 1050 1800 2    50   ~ 0
BUS_A1
Text Label 1050 1700 2    50   ~ 0
BUS_A2
Text Label 1050 1600 2    50   ~ 0
BUS_A3
Text Label 1050 1500 2    50   ~ 0
BUS_A4
Text Label 1050 1400 2    50   ~ 0
BUS_A5
Text Label 1050 1300 2    50   ~ 0
BUS_A6
Text Label 1050 1200 2    50   ~ 0
BUS_A7
NoConn ~ 1050 1000
Text Label 2800 1800 2    50   ~ 0
BUS_D2
Text Label 2800 1700 2    50   ~ 0
BUS_D1
Text Label 2800 1600 2    50   ~ 0
BUS_D0
Text Label 2800 1100 2    50   ~ 0
BUS_D3
Text Label 2800 1200 2    50   ~ 0
BUS_D4
Text Label 2800 1300 2    50   ~ 0
BUS_D5
Text Label 2800 1400 2    50   ~ 0
BUS_D6
Text Label 2800 1500 2    50   ~ 0
BUS_D7
$Comp
L dipmulator:GND #PWR0103
U 1 1 5FB5A9DD
P 2800 2000
F 0 "#PWR0103" H 2800 2000 30  0001 C CNN
F 1 "GND" H 2800 1930 30  0001 C CNN
F 2 "" H 2800 2000 60  0000 C CNN
F 3 "" H 2800 2000 60  0000 C CNN
	1    2800 2000
	0    1    1    0   
$EndComp
$Comp
L dipmulator:62256 U3
U 1 1 5FB5BB5D
P 5800 6050
F 0 "U3" H 5800 6215 50  0000 C CNN
F 1 "62256" H 5800 6124 50  0000 C CNN
F 2 "Package_SO:SOIC-28W_7.5x17.9mm_P1.27mm" H 5800 6050 50  0001 C CNN
F 3 "" H 5800 6050 50  0001 C CNN
F 4 "IS62C256AL-45ULI" H 5800 6050 50  0001 C CNN "Product"
F 5 "farnell://2254006" H 5800 6050 50  0001 C CNN "SKU"
	1    5800 6050
	1    0    0    -1  
$EndComp
Text Notes 5600 7800 0    50   ~ 0
Emulating device
$Comp
L dipmulator:GND #PWR0104
U 1 1 5FB5D2EF
P 5400 7450
F 0 "#PWR0104" H 5400 7450 30  0001 C CNN
F 1 "GND" H 5400 7380 30  0001 C CNN
F 2 "" H 5400 7450 60  0000 C CNN
F 3 "" H 5400 7450 60  0000 C CNN
	1    5400 7450
	0    1    1    0   
$EndComp
Text Label 5400 7150 2    50   ~ 0
MEM_D0
Text Label 3800 1800 0    50   ~ 0
MEM_D0
Text Label 5400 7250 2    50   ~ 0
MEM_D1
Text Label 3800 1700 0    50   ~ 0
MEM_D1
Text Label 5400 7350 2    50   ~ 0
MEM_D2
Text Label 3800 1600 0    50   ~ 0
MEM_D2
Text Label 6200 7450 0    50   ~ 0
MEM_D3
Text Label 3800 1500 0    50   ~ 0
MEM_D3
Text Label 3800 1400 0    50   ~ 0
MEM_D4
Text Label 6200 7350 0    50   ~ 0
MEM_D4
Text Label 6200 7250 0    50   ~ 0
MEM_D5
Text Label 6200 7150 0    50   ~ 0
MEM_D6
Text Label 6200 7050 0    50   ~ 0
MEM_D7
Text Label 3800 1300 0    50   ~ 0
MEM_D5
Text Label 3800 1200 0    50   ~ 0
MEM_D6
Text Label 3800 1100 0    50   ~ 0
MEM_D7
Text Label 7550 2400 2    50   ~ 0
MEM_D3
Text Label 7550 2000 2    50   ~ 0
MEM_D7
Text Label 7550 2300 2    50   ~ 0
MEM_D4
Text Label 7550 2200 2    50   ~ 0
MEM_D5
Text Label 7550 2100 2    50   ~ 0
MEM_D6
Text Label 7550 2700 2    50   ~ 0
MEM_D0
Text Label 7550 2600 2    50   ~ 0
MEM_D1
Text Label 7550 2500 2    50   ~ 0
MEM_D2
Text Label 5400 7050 2    50   ~ 0
MEM_A0
Text Label 5400 6950 2    50   ~ 0
MEM_A1
Text Label 5400 6850 2    50   ~ 0
MEM_A2
Text Label 5400 6750 2    50   ~ 0
MEM_A3
Text Label 5400 6650 2    50   ~ 0
MEM_A4
Text Label 5400 6550 2    50   ~ 0
MEM_A5
Text Label 5400 6450 2    50   ~ 0
MEM_A6
Text Label 5400 6350 2    50   ~ 0
MEM_A7
Text Label 5400 6250 2    50   ~ 0
MEM_A12
Text Label 5400 6150 2    50   ~ 0
MEM_A14
Text Label 6200 6850 0    50   ~ 0
MEM_A10
Text Label 6200 6650 0    50   ~ 0
MEM_A11
Text Label 6200 6450 0    50   ~ 0
MEM_A8
Text Label 6200 6550 0    50   ~ 0
MEM_A9
Text Label 6200 6350 0    50   ~ 0
MEM_A13
Text Label 6200 6250 0    50   ~ 0
MEM_WR
Text Label 6200 6750 0    50   ~ 0
MEM_RD
Text Label 6200 6950 0    50   ~ 0
MEM_CE
Text Label 1850 1800 0    50   ~ 0
BUS_CE
Text Label 1850 1700 0    50   ~ 0
BUS_A10
Text Label 1850 1600 0    50   ~ 0
BUS_OE
Text Label 1850 1500 0    50   ~ 0
BUS_A11
Text Label 1850 1400 0    50   ~ 0
BUS_A9
Text Label 1850 1300 0    50   ~ 0
BUS_A8
Text Label 1850 1200 0    50   ~ 0
BUS_A13
Text Label 1850 1100 0    50   ~ 0
BUS_A14
Text Label 1050 1100 2    50   ~ 0
BUS_A12
$Comp
L dipmulator:GND #PWR0107
U 1 1 5FBD77A7
P 8550 700
F 0 "#PWR0107" H 8550 700 30  0001 C CNN
F 1 "GND" H 8550 630 30  0001 C CNN
F 2 "" H 8550 700 60  0000 C CNN
F 3 "" H 8550 700 60  0000 C CNN
	1    8550 700 
	0    -1   1    0   
$EndComp
Wire Wire Line
	8250 800  8250 700 
Wire Wire Line
	8250 700  8350 700 
$Comp
L dipmulator:VCC #PWR0108
U 1 1 5FBD7E47
P 8100 700
F 0 "#PWR0108" H 8100 800 30  0001 C CNN
F 1 "VCC" H 8114 838 30  0000 C CNN
F 2 "" H 8100 700 60  0000 C CNN
F 3 "" H 8100 700 60  0000 C CNN
	1    8100 700 
	0    -1   1    0   
$EndComp
Wire Wire Line
	8100 700  8250 700 
Connection ~ 8250 700 
$Comp
L dipmulator:GND #PWR0109
U 1 1 5FBD8997
P 3000 700
F 0 "#PWR0109" H 3000 700 30  0001 C CNN
F 1 "GND" H 3000 630 30  0001 C CNN
F 2 "" H 3000 700 60  0000 C CNN
F 3 "" H 3000 700 60  0000 C CNN
	1    3000 700 
	0    1    1    0   
$EndComp
Wire Wire Line
	3300 800  3300 700 
Wire Wire Line
	3300 700  3200 700 
$Comp
L dipmulator:VCC #PWR0110
U 1 1 5FBD89A3
P 3450 700
F 0 "#PWR0110" H 3450 800 30  0001 C CNN
F 1 "VCC" H 3464 838 30  0000 C CNN
F 2 "" H 3450 700 60  0000 C CNN
F 3 "" H 3450 700 60  0000 C CNN
	1    3450 700 
	0    1    1    0   
$EndComp
Wire Wire Line
	3450 700  3300 700 
Connection ~ 3300 700 
Connection ~ 3300 2550
Wire Wire Line
	3150 2550 3300 2550
$Comp
L dipmulator:VCC #PWR0111
U 1 1 5FBDAC8D
P 3150 2550
F 0 "#PWR0111" H 3150 2650 30  0001 C CNN
F 1 "VCC" H 3164 2688 30  0000 C CNN
F 2 "" H 3150 2550 60  0000 C CNN
F 3 "" H 3150 2550 60  0000 C CNN
	1    3150 2550
	0    -1   1    0   
$EndComp
Wire Wire Line
	3300 2550 3400 2550
Wire Wire Line
	3300 2650 3300 2550
$Comp
L dipmulator:GND #PWR0112
U 1 1 5FBDAC85
P 3600 2550
F 0 "#PWR0112" H 3600 2550 30  0001 C CNN
F 1 "GND" H 3600 2480 30  0001 C CNN
F 2 "" H 3600 2550 60  0000 C CNN
F 3 "" H 3600 2550 60  0000 C CNN
	1    3600 2550
	0    -1   1    0   
$EndComp
$Comp
L dipmulator:CSMALL C2
U 1 1 5FBDAC7F
P 3500 2550
F 0 "C2" V 3332 2550 30  0000 C CNN
F 1 "100n" V 3392 2550 30  0000 C CNN
F 2 "f4libs_smd:0603_m1608" H 3500 2550 60  0001 C CNN
F 3 "" H 3500 2550 60  0000 C CNN
F 4 "06031C104KAT2A" H 3500 2550 50  0001 C CNN "Product"
	1    3500 2550
	0    -1   1    0   
$EndComp
Text Label 7550 1100 2    50   ~ 0
MEM_A4
Text Label 7550 1200 2    50   ~ 0
MEM_A5
Text Label 7550 1300 2    50   ~ 0
MEM_A6
Text Label 7550 1400 2    50   ~ 0
MEM_A7
Text Label 7550 1500 2    50   ~ 0
MEM_A3
Text Label 7550 1600 2    50   ~ 0
MEM_A2
Text Label 7550 1700 2    50   ~ 0
MEM_A1
Text Label 7550 1800 2    50   ~ 0
MEM_A0
Text Label 3800 3650 0    50   ~ 0
MEM_A0
Text Label 3800 3550 0    50   ~ 0
MEM_A1
Text Label 3800 3450 0    50   ~ 0
MEM_A2
Text Label 3800 3350 0    50   ~ 0
MEM_A3
Text Label 3800 3250 0    50   ~ 0
MEM_A4
Text Label 3800 3150 0    50   ~ 0
MEM_A5
Text Label 3800 3050 0    50   ~ 0
MEM_A6
Text Label 3800 2950 0    50   ~ 0
MEM_A7
$Comp
L dipmulator:GND #PWR0106
U 1 1 5FB913CB
P 3300 4250
F 0 "#PWR0106" H 3300 4250 30  0001 C CNN
F 1 "GND" H 3300 4180 30  0001 C CNN
F 2 "" H 3300 4250 60  0000 C CNN
F 3 "" H 3300 4250 60  0000 C CNN
	1    3300 4250
	-1   0    0    -1  
$EndComp
Text Label 2800 3350 2    50   ~ 0
BUS_A3
Text Label 2800 3150 2    50   ~ 0
BUS_A4
Text Label 2800 3250 2    50   ~ 0
BUS_A7
Text Label 2800 3050 2    50   ~ 0
BUS_A6
Text Label 2800 2950 2    50   ~ 0
BUS_A5
Text Label 2800 3450 2    50   ~ 0
BUS_A1
Text Label 2800 3550 2    50   ~ 0
BUS_A2
Text Label 2800 3650 2    50   ~ 0
BUS_A0
$Comp
L dipmulator:74HC245 U4
U 1 1 5FB728E6
P 3300 3450
F 0 "U4" H 3500 4250 50  0000 C CNN
F 1 "74HC245" H 3500 4150 50  0000 C CNN
F 2 "Package_SO:SSOP-20_4.4x6.5mm_P0.65mm" H 3300 3450 50  0001 C CNN
F 3 "http://www.ti.com/lit/gpn/sn74HC245" H 3300 3450 50  0001 C CNN
F 4 "SN74LV245APWR" H 3300 3450 50  0001 C CNN "Product"
F 5 "farnell://3119570" H 3300 3450 50  0001 C CNN "SKU"
	1    3300 3450
	-1   0    0    -1  
$EndComp
$Comp
L dipmulator:CSMALL C4
U 1 1 5FBE5AB3
P 3100 700
F 0 "C4" V 2932 700 30  0000 C CNN
F 1 "100n" V 2992 700 30  0000 C CNN
F 2 "f4libs_smd:0603_m1608" H 3100 700 60  0001 C CNN
F 3 "" H 3100 700 60  0000 C CNN
F 4 "06031C104KAT2A" H 3100 700 50  0001 C CNN "Product"
F 5 "farnell://2749806" H 3100 700 50  0001 C CNN "SKU"
	1    3100 700 
	0    1    1    0   
$EndComp
$Comp
L dipmulator:CSMALL C1
U 1 1 5FBE73C1
P 8450 700
F 0 "C1" V 8282 700 30  0000 C CNN
F 1 "100n" V 8342 700 30  0000 C CNN
F 2 "f4libs_smd:0603_m1608" H 8450 700 60  0001 C CNN
F 3 "" H 8450 700 60  0000 C CNN
F 4 "06031C104KAT2A" H 8450 700 50  0001 C CNN "Product"
	1    8450 700 
	0    -1   1    0   
$EndComp
Connection ~ 3300 4400
Wire Wire Line
	3150 4400 3300 4400
Wire Wire Line
	3300 4400 3400 4400
Wire Wire Line
	3300 4500 3300 4400
$Comp
L dipmulator:GND #PWR0115
U 1 1 5FBF4916
P 3600 4400
F 0 "#PWR0115" H 3600 4400 30  0001 C CNN
F 1 "GND" H 3600 4330 30  0001 C CNN
F 2 "" H 3600 4400 60  0000 C CNN
F 3 "" H 3600 4400 60  0000 C CNN
	1    3600 4400
	0    -1   1    0   
$EndComp
$Comp
L dipmulator:CSMALL C5
U 1 1 5FBF491C
P 3500 4400
F 0 "C5" V 3332 4400 30  0000 C CNN
F 1 "100n" V 3392 4400 30  0000 C CNN
F 2 "f4libs_smd:0603_m1608" H 3500 4400 60  0001 C CNN
F 3 "" H 3500 4400 60  0000 C CNN
F 4 "06031C104KAT2A" H 3500 4400 50  0001 C CNN "Product"
	1    3500 4400
	0    -1   1    0   
$EndComp
Text Label 7550 3900 2    50   ~ 0
MEM_A13
Text Label 7550 4000 2    50   ~ 0
MEM_A8
Text Label 7550 4100 2    50   ~ 0
MEM_A9
Text Label 7550 4200 2    50   ~ 0
MEM_A11
Text Label 7550 4300 2    50   ~ 0
MEM_A10
Text Label 7550 4400 2    50   ~ 0
MEM_A12
Text Label 7550 4500 2    50   ~ 0
MEM_A14
Text Label 3800 5500 0    50   ~ 0
MEM_A13
Text Label 3800 5400 0    50   ~ 0
MEM_A8
Text Label 3800 5300 0    50   ~ 0
MEM_A9
Text Label 3800 5200 0    50   ~ 0
MEM_A11
Text Label 3800 5100 0    50   ~ 0
MEM_A10
Text Label 3800 5000 0    50   ~ 0
MEM_A12
Text Label 3800 4900 0    50   ~ 0
MEM_A14
$Comp
L dipmulator:GND #PWR0116
U 1 1 5FBF4932
P 3300 6100
F 0 "#PWR0116" H 3300 6100 30  0001 C CNN
F 1 "GND" H 3300 6030 30  0001 C CNN
F 2 "" H 3300 6100 60  0000 C CNN
F 3 "" H 3300 6100 60  0000 C CNN
	1    3300 6100
	-1   0    0    -1  
$EndComp
Text Label 2800 5200 2    50   ~ 0
BUS_A11
Text Label 2800 4900 2    50   ~ 0
BUS_A12
Text Label 2800 5500 2    50   ~ 0
BUS_A8
Text Label 2800 5300 2    50   ~ 0
BUS_A10
$Comp
L dipmulator:74HC245 U7
U 1 1 5FBF494C
P 3300 5300
F 0 "U7" H 3500 6100 50  0000 C CNN
F 1 "74HC245" H 3500 6000 50  0000 C CNN
F 2 "Package_SO:SSOP-20_4.4x6.5mm_P0.65mm" H 3300 5300 50  0001 C CNN
F 3 "http://www.ti.com/lit/gpn/sn74HC245" H 3300 5300 50  0001 C CNN
F 4 "SN74LV245APWR" H 3300 5300 50  0001 C CNN "Product"
F 5 "farnell://3119570" H 3300 5300 50  0001 C CNN "SKU"
	1    3300 5300
	-1   0    0    -1  
$EndComp
Text Label 2800 5100 2    50   ~ 0
BUS_A13
$Comp
L dipmulator:GND #PWR0120
U 1 1 5FC0A330
P 3800 3850
F 0 "#PWR0120" H 3800 3850 30  0001 C CNN
F 1 "GND" H 3800 3780 30  0001 C CNN
F 2 "" H 3800 3850 60  0000 C CNN
F 3 "" H 3800 3850 60  0000 C CNN
	1    3800 3850
	0    -1   1    0   
$EndComp
$Comp
L dipmulator:GND #PWR0121
U 1 1 5FC0A994
P 3800 5700
F 0 "#PWR0121" H 3800 5700 30  0001 C CNN
F 1 "GND" H 3800 5630 30  0001 C CNN
F 2 "" H 3800 5700 60  0000 C CNN
F 3 "" H 3800 5700 60  0000 C CNN
	1    3800 5700
	0    -1   1    0   
$EndComp
Text Label 3800 5800 0    50   ~ 0
BUSEN
Text Label 3800 3950 0    50   ~ 0
BUSEN
Text Label 2800 2100 2    50   ~ 0
BUSEN
$Comp
L dipmulator:CSMALL C7
U 1 1 5FC27454
P 6200 5950
F 0 "C7" V 6032 5950 30  0000 C CNN
F 1 "100n" V 6092 5950 30  0000 C CNN
F 2 "f4libs_smd:0603_m1608" H 6200 5950 60  0001 C CNN
F 3 "" H 6200 5950 60  0000 C CNN
F 4 "06031C104KAT2A" H 6200 5950 50  0001 C CNN "Product"
	1    6200 5950
	0    -1   1    0   
$EndComp
Wire Wire Line
	6300 5950 6350 5950
Wire Wire Line
	6350 6150 6200 6150
$Comp
L dipmulator:VCC #PWR0122
U 1 1 5FC28418
P 6350 5900
F 0 "#PWR0122" H 6350 6000 30  0001 C CNN
F 1 "VCC" H 6364 6038 30  0000 C CNN
F 2 "" H 6350 5900 60  0000 C CNN
F 3 "" H 6350 5900 60  0000 C CNN
	1    6350 5900
	1    0    0    -1  
$EndComp
$Comp
L dipmulator:GND #PWR0123
U 1 1 5FC28994
P 6100 5950
F 0 "#PWR0123" H 6100 5950 30  0001 C CNN
F 1 "GND" H 6100 5880 30  0001 C CNN
F 2 "" H 6100 5950 60  0000 C CNN
F 3 "" H 6100 5950 60  0000 C CNN
	1    6100 5950
	0    1    -1   0   
$EndComp
Text Label 2800 5000 2    50   ~ 0
BUS_A14
Text Label 2800 5400 2    50   ~ 0
BUS_A9
$Comp
L dipmulator:VCC #PWR0124
U 1 1 5FC2F3BF
P 3150 4400
F 0 "#PWR0124" H 3150 4500 30  0001 C CNN
F 1 "VCC" H 3164 4538 30  0000 C CNN
F 2 "" H 3150 4400 60  0000 C CNN
F 3 "" H 3150 4400 60  0000 C CNN
	1    3150 4400
	0    -1   1    0   
$EndComp
$Comp
L dipmulator:MCP23S17_ML U5
U 1 1 5FC55D80
P 8250 1900
F 0 "U5" H 8400 3000 50  0000 C CNN
F 1 "MCP23S17_ML" H 8600 2900 50  0000 C CNN
F 2 "dipmulator:QFN-28-NOEP_6x6mm_P0.65mm" H 8450 900 50  0001 L CNN
F 3 "http://ww1.microchip.com/downloads/en/DeviceDoc/20001952C.pdf" H 8450 800 50  0001 L CNN
F 4 "MCP23S17T-E/ML" H 8250 1900 50  0001 C CNN "Product"
F 5 "farnell://2851560" H 8250 1900 50  0001 C CNN "SKU"
	1    8250 1900
	-1   0    0    -1  
$EndComp
$Comp
L dipmulator:GND #PWR02
U 1 1 5FC58774
P 8250 3000
F 0 "#PWR02" H 8250 3000 30  0001 C CNN
F 1 "GND" H 8250 2930 30  0001 C CNN
F 2 "" H 8250 3000 60  0000 C CNN
F 3 "" H 8250 3000 60  0000 C CNN
	1    8250 3000
	-1   0    0    -1  
$EndComp
Text Label 8950 1300 0    50   ~ 0
SDA
Text Label 8950 1200 0    50   ~ 0
SCL
NoConn ~ 8950 1100
NoConn ~ 8950 1400
NoConn ~ 8950 1700
NoConn ~ 8950 1800
$Comp
L dipmulator:GND #PWR01
U 1 1 5FC637FA
P 9050 2950
F 0 "#PWR01" H 9050 2950 30  0001 C CNN
F 1 "GND" H 9050 2880 30  0001 C CNN
F 2 "" H 9050 2950 60  0000 C CNN
F 3 "" H 9050 2950 60  0000 C CNN
	1    9050 2950
	-1   0    0    -1  
$EndComp
Wire Wire Line
	9050 2950 9050 2700
Wire Wire Line
	8950 2700 9050 2700
$Comp
L dipmulator:GND #PWR0105
U 1 1 5FC71571
P 8550 3500
F 0 "#PWR0105" H 8550 3500 30  0001 C CNN
F 1 "GND" H 8550 3430 30  0001 C CNN
F 2 "" H 8550 3500 60  0000 C CNN
F 3 "" H 8550 3500 60  0000 C CNN
	1    8550 3500
	0    -1   1    0   
$EndComp
Wire Wire Line
	8250 3600 8250 3500
Wire Wire Line
	8250 3500 8350 3500
$Comp
L dipmulator:VCC #PWR0113
U 1 1 5FC71815
P 8100 3500
F 0 "#PWR0113" H 8100 3600 30  0001 C CNN
F 1 "VCC" H 8114 3638 30  0000 C CNN
F 2 "" H 8100 3500 60  0000 C CNN
F 3 "" H 8100 3500 60  0000 C CNN
	1    8100 3500
	0    -1   1    0   
$EndComp
Wire Wire Line
	8100 3500 8250 3500
Connection ~ 8250 3500
$Comp
L dipmulator:CSMALL C3
U 1 1 5FC71821
P 8450 3500
F 0 "C3" V 8282 3500 30  0000 C CNN
F 1 "100n" V 8342 3500 30  0000 C CNN
F 2 "f4libs_smd:0603_m1608" H 8450 3500 60  0001 C CNN
F 3 "" H 8450 3500 60  0000 C CNN
F 4 "06031C104KAT2A" H 8450 3500 50  0001 C CNN "Product"
	1    8450 3500
	0    -1   1    0   
$EndComp
$Comp
L dipmulator:GND #PWR0114
U 1 1 5FC71835
P 8250 5800
F 0 "#PWR0114" H 8250 5800 30  0001 C CNN
F 1 "GND" H 8250 5730 30  0001 C CNN
F 2 "" H 8250 5800 60  0000 C CNN
F 3 "" H 8250 5800 60  0000 C CNN
	1    8250 5800
	-1   0    0    -1  
$EndComp
Text Label 8950 4100 0    50   ~ 0
SDA
Text Label 8950 4000 0    50   ~ 0
SCL
NoConn ~ 8950 3900
NoConn ~ 8950 4200
$Comp
L dipmulator:GND #PWR0117
U 1 1 5FC71845
P 9050 5750
F 0 "#PWR0117" H 9050 5750 30  0001 C CNN
F 1 "GND" H 9050 5680 30  0001 C CNN
F 2 "" H 9050 5750 60  0000 C CNN
F 3 "" H 9050 5750 60  0000 C CNN
	1    9050 5750
	-1   0    0    -1  
$EndComp
Wire Wire Line
	9150 5300 8950 5300
Wire Wire Line
	8950 5400 9050 5400
Wire Wire Line
	9050 5400 9050 5500
$Comp
L dipmulator:VCC #PWR0118
U 1 1 5FC7F914
P 9150 5300
F 0 "#PWR0118" H 9150 5400 30  0001 C CNN
F 1 "VCC" H 9164 5438 30  0000 C CNN
F 2 "" H 9150 5300 60  0000 C CNN
F 3 "" H 9150 5300 60  0000 C CNN
	1    9150 5300
	0    1    -1   0   
$EndComp
Wire Wire Line
	9050 5500 8950 5500
Text Label 8950 1700 0    50   ~ 0
INTB1
Text Label 8950 1800 0    50   ~ 0
INTA1
Text Label 8950 1400 0    50   ~ 0
SO1
Text Label 8950 1100 0    50   ~ 0
nCS1
Text Label 8950 2000 0    50   ~ 0
RST
$Comp
L dipmulator:VCC #PWR0119
U 1 1 5FCB117A
P 9150 2600
F 0 "#PWR0119" H 9150 2700 30  0001 C CNN
F 1 "VCC" H 9164 2738 30  0000 C CNN
F 2 "" H 9150 2600 60  0000 C CNN
F 3 "" H 9150 2600 60  0000 C CNN
	1    9150 2600
	0    1    -1   0   
$EndComp
Wire Wire Line
	8950 2600 9050 2600
$Comp
L dipmulator:MC74VHC1G126DF U8
U 1 1 5FCC4493
P 3250 6500
F 0 "U8" H 3700 6450 50  0000 L CNN
F 1 "MC74VHC1G126DF" H 3700 6350 50  0000 L CNN
F 2 "Package_TO_SOT_SMD:SOT-353_SC-70-5" H 3250 6500 50  0001 C CNN
F 3 "" H 3250 6500 50  0001 C CNN
F 4 "M74VHC1GT126DF1G" H 3250 6500 50  0001 C CNN "Product"
F 5 "farnell://1654341" H 3250 6500 50  0001 C CNN "SKU"
	1    3250 6500
	1    0    0    -1  
$EndComp
$Comp
L dipmulator:GND #PWR0125
U 1 1 5FCC614A
P 3300 6700
F 0 "#PWR0125" H 3300 6700 30  0001 C CNN
F 1 "GND" H 3300 6630 30  0001 C CNN
F 2 "" H 3300 6700 60  0000 C CNN
F 3 "" H 3300 6700 60  0000 C CNN
	1    3300 6700
	1    0    0    -1  
$EndComp
$Comp
L dipmulator:GND #PWR0126
U 1 1 5FCC65D7
P 3300 7650
F 0 "#PWR0126" H 3300 7650 30  0001 C CNN
F 1 "GND" H 3300 7580 30  0001 C CNN
F 2 "" H 3300 7650 60  0000 C CNN
F 3 "" H 3300 7650 60  0000 C CNN
	1    3300 7650
	1    0    0    -1  
$EndComp
Wire Wire Line
	3000 6300 2900 6300
Wire Wire Line
	2900 6300 2900 7250
Wire Wire Line
	2900 7250 3000 7250
Connection ~ 2900 6300
Text Label 2700 6300 2    50   ~ 0
nBUSEN
Text Label 2700 6500 2    50   ~ 0
BUS_OE
Text Label 2700 7450 2    50   ~ 0
BUS_CE
Text Label 3900 6500 0    50   ~ 0
MEM_RD
$Comp
L dipmulator:MC74VHC1G126DF U9
U 1 1 5FCCE067
P 3250 7450
F 0 "U9" H 3700 7400 50  0000 L CNN
F 1 "MC74VHC1G126DF" H 3700 7300 50  0000 L CNN
F 2 "Package_TO_SOT_SMD:SOT-353_SC-70-5" H 3250 7450 50  0001 C CNN
F 3 "" H 3250 7450 50  0001 C CNN
F 4 "farnell://1654341" H 3250 7450 50  0001 C CNN "SKU"
F 5 "M74VHC1GT126DF1G" H 3250 7450 50  0001 C CNN "Product"
	1    3250 7450
	1    0    0    -1  
$EndComp
Text Label 3900 7450 0    50   ~ 0
MEM_CE
$Comp
L dipmulator:VCC #PWR0127
U 1 1 5FCCE92A
P 3450 6850
F 0 "#PWR0127" H 3450 6950 30  0001 C CNN
F 1 "VCC" H 3464 6988 30  0000 C CNN
F 2 "" H 3450 6850 60  0000 C CNN
F 3 "" H 3450 6850 60  0000 C CNN
	1    3450 6850
	0    -1   -1   0   
$EndComp
Wire Wire Line
	3300 6200 3550 6200
Wire Wire Line
	3550 7150 3300 7150
Wire Wire Line
	3300 7150 3300 7250
Wire Wire Line
	3300 6200 3300 6300
$Comp
L dipmulator:CSMALL C6
U 1 1 5FCD0078
P 3750 6850
F 0 "C6" V 3582 6850 30  0000 C CNN
F 1 "100n" V 3642 6850 30  0000 C CNN
F 2 "f4libs_smd:0603_m1608" H 3750 6850 60  0001 C CNN
F 3 "" H 3750 6850 60  0000 C CNN
	1    3750 6850
	0    1    1    0   
$EndComp
$Comp
L dipmulator:GND #PWR0128
U 1 1 5FCD1398
P 3850 6850
F 0 "#PWR0128" H 3850 6850 30  0001 C CNN
F 1 "GND" H 3850 6780 30  0001 C CNN
F 2 "" H 3850 6850 60  0000 C CNN
F 3 "" H 3850 6850 60  0000 C CNN
	1    3850 6850
	0    -1   -1   0   
$EndComp
Wire Wire Line
	3550 6200 3550 6850
Wire Wire Line
	3650 6850 3550 6850
Connection ~ 3550 6850
Wire Wire Line
	3550 6850 3550 7150
$Comp
L dipmulator:Conn_01x04 J1
U 1 1 5FCE5EE2
P 10300 1500
F 0 "J1" H 10380 1492 50  0000 L CNN
F 1 "Conn_01x04" H 10380 1401 50  0000 L CNN
F 2 "Connector_PinHeader_2.54mm:PinHeader_1x04_P2.54mm_Vertical" H 10300 1500 50  0001 C CNN
F 3 "~" H 10300 1500 50  0001 C CNN
	1    10300 1500
	1    0    0    -1  
$EndComp
Text Label 7550 5300 2    50   ~ 0
MEM_RD
Text Label 7550 5500 2    50   ~ 0
MEM_CE
Text Label 7550 5400 2    50   ~ 0
MEM_WR
Text Label 6900 4800 2    50   ~ 0
BUSEN
$Comp
L dipmulator:VCC #PWR04
U 1 1 5FCF3C82
P 9950 3100
F 0 "#PWR04" H 9950 3200 30  0001 C CNN
F 1 "VCC" H 9964 3238 30  0000 C CNN
F 2 "" H 9950 3100 60  0000 C CNN
F 3 "" H 9950 3100 60  0000 C CNN
	1    9950 3100
	-1   0    0    -1  
$EndComp
Wire Wire Line
	9950 3100 9950 3200
Wire Wire Line
	9950 3200 10050 3200
$Comp
L dipmulator:CSMALL C8
U 1 1 5FCF4B46
P 9750 3200
F 0 "C8" V 9582 3200 30  0000 C CNN
F 1 "100n" V 9642 3200 30  0000 C CNN
F 2 "f4libs_smd:0603_m1608" H 9750 3200 60  0001 C CNN
F 3 "" H 9750 3200 60  0000 C CNN
F 4 "06031C104KAT2A" H 9750 3200 50  0001 C CNN "Product"
	1    9750 3200
	0    -1   1    0   
$EndComp
Wire Wire Line
	9850 3200 9950 3200
Connection ~ 9950 3200
$Comp
L dipmulator:GND #PWR05
U 1 1 5FCF5BBB
P 9650 3200
F 0 "#PWR05" H 9650 3200 30  0001 C CNN
F 1 "GND" H 9650 3130 30  0001 C CNN
F 2 "" H 9650 3200 60  0000 C CNN
F 3 "" H 9650 3200 60  0000 C CNN
	1    9650 3200
	0    1    -1   0   
$EndComp
$Comp
L dipmulator:GND #PWR03
U 1 1 5FCF5F0E
P 11050 3500
F 0 "#PWR03" H 11050 3500 30  0001 C CNN
F 1 "GND" H 11050 3430 30  0001 C CNN
F 2 "" H 11050 3500 60  0000 C CNN
F 3 "" H 11050 3500 60  0000 C CNN
	1    11050 3500
	0    -1   1    0   
$EndComp
Wire Wire Line
	11050 3500 10950 3500
Wire Wire Line
	10950 3500 10950 3400
Wire Wire Line
	10950 3200 10850 3200
Connection ~ 10950 3500
Wire Wire Line
	10950 3500 10850 3500
Wire Wire Line
	10850 3300 10950 3300
Connection ~ 10950 3300
Wire Wire Line
	10950 3300 10950 3200
Wire Wire Line
	10850 3400 10950 3400
Connection ~ 10950 3400
Wire Wire Line
	10950 3400 10950 3300
Text Label 10050 3400 2    50   ~ 0
SCL
Text Label 10050 3500 2    50   ~ 0
SDA
NoConn ~ 3800 4800
NoConn ~ 2800 4800
$Comp
L dipmulator:MC74VHC1GT04DF U11
U 1 1 5FD828AC
P 1350 6300
F 0 "U11" H 1550 6200 50  0000 L CNN
F 1 "MC74VHC1GT04DF" H 1550 6100 50  0000 L CNN
F 2 "Package_TO_SOT_SMD:SOT-353_SC-70-5" H 1200 6650 50  0001 C CNN
F 3 "" H 1200 6650 50  0001 C CNN
F 4 "M74VHC1GT04DFT1G" H 1350 6300 50  0001 C CNN "Product"
F 5 "farnell://2534356" H 1350 6300 50  0001 C CNN "SKU"
	1    1350 6300
	1    0    0    -1  
$EndComp
$Comp
L dipmulator:GND #PWR0129
U 1 1 5FD83792
P 1400 6500
F 0 "#PWR0129" H 1400 6500 30  0001 C CNN
F 1 "GND" H 1400 6430 30  0001 C CNN
F 2 "" H 1400 6500 60  0000 C CNN
F 3 "" H 1400 6500 60  0000 C CNN
	1    1400 6500
	1    0    0    -1  
$EndComp
Connection ~ 1400 6000
Wire Wire Line
	1400 5850 1400 6000
$Comp
L dipmulator:VCC #PWR0130
U 1 1 5FD84739
P 1400 5850
F 0 "#PWR0130" H 1400 5950 30  0001 C CNN
F 1 "VCC" H 1414 5988 30  0000 C CNN
F 2 "" H 1400 5850 60  0000 C CNN
F 3 "" H 1400 5850 60  0000 C CNN
	1    1400 5850
	1    0    0    -1  
$EndComp
Wire Wire Line
	1400 6000 1300 6000
Wire Wire Line
	1400 6100 1400 6000
$Comp
L dipmulator:GND #PWR0131
U 1 1 5FD84745
P 1100 6000
F 0 "#PWR0131" H 1100 6000 30  0001 C CNN
F 1 "GND" H 1100 5930 30  0001 C CNN
F 2 "" H 1100 6000 60  0000 C CNN
F 3 "" H 1100 6000 60  0000 C CNN
	1    1100 6000
	0    1    1    0   
$EndComp
$Comp
L dipmulator:CSMALL C9
U 1 1 5FD8474F
P 1200 6000
F 0 "C9" V 1032 6000 30  0000 C CNN
F 1 "100n" V 1092 6000 30  0000 C CNN
F 2 "f4libs_smd:0603_m1608" H 1200 6000 60  0001 C CNN
F 3 "" H 1200 6000 60  0000 C CNN
F 4 "06031C104KAT2A" H 1200 6000 50  0001 C CNN "Product"
	1    1200 6000
	0    1    1    0   
$EndComp
Text Label 1100 6300 2    50   ~ 0
BUSEN
Text Label 10050 1700 2    50   ~ 0
SDA
Text Label 10050 1600 2    50   ~ 0
SCL
Text Label 8950 4500 0    50   ~ 0
INTB2
Text Label 8950 4600 0    50   ~ 0
INTA2
NoConn ~ 8950 4500
NoConn ~ 8950 4600
Text Label 8950 4200 0    50   ~ 0
SO2
Text Label 8950 3900 0    50   ~ 0
nCS2
Entry Wire Line
	700  1100 600  1200
Entry Wire Line
	700  1200 600  1300
Entry Wire Line
	700  1300 600  1400
Entry Wire Line
	700  1400 600  1500
Entry Wire Line
	700  1500 600  1600
Entry Wire Line
	600  1700 700  1600
Entry Wire Line
	600  1800 700  1700
Entry Wire Line
	600  1900 700  1800
Entry Wire Line
	600  2000 700  1900
Entry Wire Line
	600  2100 700  2000
Entry Wire Line
	600  2200 700  2100
Entry Wire Line
	600  2300 700  2200
Entry Wire Line
	2200 1200 2300 1300
Entry Wire Line
	2200 1300 2300 1400
Entry Wire Line
	2200 1400 2300 1500
Entry Wire Line
	2200 1500 2300 1600
Entry Wire Line
	2200 1600 2300 1700
Entry Wire Line
	2200 1700 2300 1800
Entry Wire Line
	2200 1800 2300 1900
Entry Wire Line
	2200 1900 2300 2000
Entry Wire Line
	2200 2000 2300 2100
Entry Wire Line
	2200 2100 2300 2200
Entry Wire Line
	2200 2200 2300 2300
Entry Wire Line
	2200 2300 2300 2400
Wire Bus Line
	600  2500 2300 2500
Wire Wire Line
	1050 2200 700  2200
Wire Wire Line
	1050 2100 700  2100
Wire Wire Line
	1050 2000 700  2000
Wire Wire Line
	1050 1900 700  1900
Wire Wire Line
	1050 1800 700  1800
Wire Wire Line
	1050 1700 700  1700
Wire Wire Line
	1050 1600 700  1600
Wire Wire Line
	1050 1500 700  1500
Wire Wire Line
	700  1400 1050 1400
Wire Wire Line
	1050 1300 700  1300
Wire Wire Line
	700  1200 1050 1200
Wire Wire Line
	1050 1100 700  1100
Wire Wire Line
	2200 1100 1850 1100
Wire Wire Line
	2200 1200 1850 1200
Wire Wire Line
	1850 1300 2200 1300
Wire Wire Line
	2200 1400 1850 1400
Wire Wire Line
	1850 1500 2200 1500
Wire Wire Line
	2200 1600 1850 1600
Wire Wire Line
	1850 1700 2200 1700
Wire Wire Line
	2200 1800 1850 1800
Wire Wire Line
	1850 1900 2200 1900
Wire Wire Line
	2200 2000 1850 2000
Wire Wire Line
	1850 2100 2200 2100
Wire Wire Line
	2200 2200 1850 2200
Wire Wire Line
	1850 2300 2200 2300
Text Notes 3750 2050 0    50   ~ 0
B->A
Text Notes 2700 3850 0    50   ~ 0
B->A
Wire Wire Line
	3450 6850 3550 6850
Connection ~ 2300 2500
Entry Wire Line
	2200 1100 2300 1200
Entry Wire Line
	2300 1200 2400 1100
Entry Wire Line
	2300 1300 2400 1200
Entry Wire Line
	2300 1400 2400 1300
Entry Wire Line
	2300 1500 2400 1400
Entry Wire Line
	2300 1600 2400 1500
Entry Wire Line
	2300 1700 2400 1600
Entry Wire Line
	2300 1800 2400 1700
Entry Wire Line
	2300 1900 2400 1800
Wire Wire Line
	2800 1100 2400 1100
Wire Wire Line
	2400 1200 2800 1200
Wire Wire Line
	2800 1300 2400 1300
Wire Wire Line
	2400 1400 2800 1400
Wire Wire Line
	2400 1500 2800 1500
Wire Wire Line
	2400 1600 2800 1600
Wire Wire Line
	2400 1700 2800 1700
Wire Wire Line
	2400 1800 2800 1800
Entry Wire Line
	2300 2850 2400 2950
Entry Wire Line
	2300 2950 2400 3050
Entry Wire Line
	2300 3050 2400 3150
Entry Wire Line
	2300 3150 2400 3250
Entry Wire Line
	2300 3250 2400 3350
Entry Wire Line
	2300 3350 2400 3450
Entry Wire Line
	2300 3450 2400 3550
Entry Wire Line
	2300 3550 2400 3650
Wire Wire Line
	2400 2950 2800 2950
Wire Wire Line
	2800 3050 2400 3050
Wire Wire Line
	2800 3150 2400 3150
Wire Wire Line
	2800 3250 2400 3250
Wire Wire Line
	2800 3350 2400 3350
Wire Wire Line
	2800 3450 2400 3450
Wire Wire Line
	2800 3550 2400 3550
Wire Wire Line
	2800 3650 2400 3650
Entry Wire Line
	2300 4800 2400 4900
Entry Wire Line
	2300 4900 2400 5000
Entry Wire Line
	2300 5000 2400 5100
Entry Wire Line
	2300 5100 2400 5200
Entry Wire Line
	2300 5200 2400 5300
Entry Wire Line
	2300 5300 2400 5400
Entry Wire Line
	2300 5400 2400 5500
Wire Wire Line
	2400 4900 2800 4900
Wire Wire Line
	2800 5000 2400 5000
Wire Wire Line
	2400 5100 2800 5100
Wire Wire Line
	2800 5200 2400 5200
Wire Wire Line
	2400 5300 2800 5300
Wire Wire Line
	2800 5400 2400 5400
Wire Wire Line
	2400 5500 2800 5500
Entry Wire Line
	2300 6400 2400 6500
Wire Wire Line
	2400 6500 3000 6500
Entry Wire Line
	2300 7350 2400 7450
Wire Wire Line
	2400 7450 3000 7450
Wire Wire Line
	1600 6300 2900 6300
Text Notes 2550 5850 0    50   ~ 0
B->A
Entry Wire Line
	4200 4900 4300 5000
Entry Wire Line
	4200 5000 4300 5100
Entry Wire Line
	4200 5100 4300 5200
Entry Wire Line
	4200 5200 4300 5300
Entry Wire Line
	4200 5300 4300 5400
Entry Wire Line
	4200 5400 4300 5500
Entry Wire Line
	4200 5500 4300 5600
Entry Wire Line
	4200 2950 4300 3050
Entry Wire Line
	4200 3050 4300 3150
Entry Wire Line
	4200 3150 4300 3250
Entry Wire Line
	4200 3250 4300 3350
Entry Wire Line
	4200 3350 4300 3450
Entry Wire Line
	4200 3450 4300 3550
Entry Wire Line
	4200 3550 4300 3650
Entry Wire Line
	4200 3650 4300 3750
Entry Wire Line
	4200 1100 4300 1200
Entry Wire Line
	4200 1200 4300 1300
Entry Wire Line
	4200 1300 4300 1400
Entry Wire Line
	4200 1400 4300 1500
Entry Wire Line
	4200 1500 4300 1600
Entry Wire Line
	4200 1600 4300 1700
Entry Wire Line
	4200 1700 4300 1800
Entry Wire Line
	4200 1800 4300 1900
Wire Wire Line
	4200 1800 3800 1800
Wire Wire Line
	4200 1700 3800 1700
Wire Wire Line
	3800 1600 4200 1600
Wire Wire Line
	4200 1500 3800 1500
Wire Wire Line
	3800 1400 4200 1400
Wire Wire Line
	4200 1300 3800 1300
Wire Wire Line
	3800 1200 4200 1200
Wire Wire Line
	4200 1100 3800 1100
Wire Wire Line
	4200 2950 3800 2950
Wire Wire Line
	3800 3050 4200 3050
Wire Wire Line
	4200 3150 3800 3150
Wire Wire Line
	3800 3250 4200 3250
Wire Wire Line
	4200 3350 3800 3350
Wire Wire Line
	3800 3450 4200 3450
Wire Wire Line
	4200 3550 3800 3550
Wire Wire Line
	3800 3650 4200 3650
Wire Wire Line
	4200 4900 3800 4900
Wire Wire Line
	3800 5000 4200 5000
Wire Wire Line
	4200 5100 3800 5100
Wire Wire Line
	3800 5200 4200 5200
Wire Wire Line
	4200 5300 3800 5300
Wire Wire Line
	3800 5400 4200 5400
Wire Wire Line
	4200 5500 3800 5500
Entry Wire Line
	4200 7450 4300 7350
Wire Wire Line
	3500 7450 4200 7450
Wire Wire Line
	3500 6500 4200 6500
Entry Wire Line
	4200 6500 4300 6400
Entry Wire Line
	4950 6150 5050 6250
Entry Wire Line
	4950 6050 5050 6150
Entry Wire Line
	4950 6250 5050 6350
Entry Wire Line
	4950 6350 5050 6450
Entry Wire Line
	4950 6450 5050 6550
Entry Wire Line
	4950 6550 5050 6650
Entry Wire Line
	4950 6650 5050 6750
Entry Wire Line
	4950 6750 5050 6850
Entry Wire Line
	4950 6850 5050 6950
Entry Wire Line
	4950 6950 5050 7050
Entry Wire Line
	4950 7050 5050 7150
Entry Wire Line
	4950 7150 5050 7250
Entry Wire Line
	4950 7250 5050 7350
Entry Wire Line
	6600 7250 6700 7150
Entry Wire Line
	6600 7350 6700 7250
Entry Wire Line
	6600 7450 6700 7350
Entry Wire Line
	6600 7150 6700 7050
Entry Wire Line
	6600 7050 6700 6950
Entry Wire Line
	6600 6950 6700 6850
Entry Wire Line
	6600 6850 6700 6750
Entry Wire Line
	6600 6750 6700 6650
Entry Wire Line
	6600 6650 6700 6550
Entry Wire Line
	6600 6550 6700 6450
Entry Wire Line
	6600 6450 6700 6350
Entry Wire Line
	6600 6350 6700 6250
Entry Wire Line
	6600 6250 6700 6150
Wire Wire Line
	5050 6150 5400 6150
Wire Wire Line
	5400 6250 5050 6250
Wire Wire Line
	5050 6350 5400 6350
Wire Wire Line
	5400 6450 5050 6450
Wire Wire Line
	5050 6550 5400 6550
Wire Wire Line
	5400 6650 5050 6650
Wire Wire Line
	5050 6750 5400 6750
Wire Wire Line
	5400 6850 5050 6850
Wire Wire Line
	5050 6950 5400 6950
Wire Wire Line
	5400 7050 5050 7050
Wire Wire Line
	5050 7150 5400 7150
Wire Wire Line
	5400 7250 5050 7250
Wire Wire Line
	5050 7350 5400 7350
Wire Wire Line
	6200 7450 6600 7450
Wire Wire Line
	6600 7350 6200 7350
Wire Wire Line
	6200 7250 6600 7250
Wire Wire Line
	6200 7050 6600 7050
Wire Wire Line
	6200 7150 6600 7150
Wire Wire Line
	6200 6850 6600 6850
Wire Wire Line
	6200 6950 6600 6950
Wire Wire Line
	6600 6750 6200 6750
Wire Wire Line
	6200 6650 6600 6650
Wire Wire Line
	6600 6550 6200 6550
Wire Wire Line
	6200 6450 6600 6450
Wire Wire Line
	6600 6350 6200 6350
Wire Wire Line
	6200 6250 6600 6250
Wire Wire Line
	6350 5900 6350 5950
Connection ~ 6350 5950
Wire Wire Line
	6350 5950 6350 6150
Wire Bus Line
	6700 5700 4950 5700
Connection ~ 4300 5700
Connection ~ 4950 5700
Wire Bus Line
	4950 5700 4300 5700
Entry Wire Line
	6700 5600 6800 5500
Entry Wire Line
	6700 5500 6800 5400
Entry Wire Line
	6700 5400 6800 5300
Entry Wire Line
	6700 4600 6800 4500
Entry Wire Line
	6700 4000 6800 3900
Entry Wire Line
	6700 4100 6800 4000
Entry Wire Line
	6700 4200 6800 4100
Entry Wire Line
	6700 4300 6800 4200
Entry Wire Line
	6700 4400 6800 4300
Wire Wire Line
	6800 3900 7550 3900
Wire Wire Line
	7550 4000 6800 4000
Wire Wire Line
	6800 4100 7550 4100
Wire Wire Line
	7550 4200 6800 4200
Wire Wire Line
	6800 4300 7550 4300
Wire Wire Line
	7550 5400 6800 5400
Wire Wire Line
	6800 5500 7550 5500
Wire Wire Line
	7550 5300 6800 5300
Connection ~ 6700 5700
Entry Wire Line
	6700 1200 6800 1100
Entry Wire Line
	6700 1300 6800 1200
Entry Wire Line
	6700 1400 6800 1300
Entry Wire Line
	6700 1500 6800 1400
Entry Wire Line
	6700 1600 6800 1500
Entry Wire Line
	6700 1700 6800 1600
Entry Wire Line
	6700 1800 6800 1700
Entry Wire Line
	6700 1900 6800 1800
Entry Wire Line
	6700 2100 6800 2000
Entry Wire Line
	6700 2200 6800 2100
Entry Wire Line
	6700 2300 6800 2200
Entry Wire Line
	6700 2400 6800 2300
Entry Wire Line
	6700 2500 6800 2400
Entry Wire Line
	6700 2600 6800 2500
Entry Wire Line
	6700 2700 6800 2600
Entry Wire Line
	6700 2800 6800 2700
Wire Wire Line
	6800 2700 7550 2700
Wire Wire Line
	7550 2600 6800 2600
Wire Wire Line
	7550 2500 6800 2500
Wire Wire Line
	7550 2400 6800 2400
Wire Wire Line
	7550 2300 6800 2300
Wire Wire Line
	7550 2200 6800 2200
Wire Wire Line
	7550 2100 6800 2100
Wire Wire Line
	7550 2000 6800 2000
Wire Wire Line
	7550 1800 6800 1800
Wire Wire Line
	7550 1700 6800 1700
Wire Wire Line
	6800 1600 7550 1600
Wire Wire Line
	7550 1500 6800 1500
Wire Wire Line
	6800 1400 7550 1400
Wire Wire Line
	7550 1300 6800 1300
Wire Wire Line
	6800 1200 7550 1200
Wire Wire Line
	7550 1100 6800 1100
Wire Wire Line
	9550 1200 8950 1200
Wire Wire Line
	9550 1200 9550 1600
Wire Wire Line
	9550 3400 10050 3400
Wire Wire Line
	9550 3400 9550 4000
Wire Wire Line
	9550 4000 8950 4000
Connection ~ 9550 3400
Wire Wire Line
	9500 4100 9500 3500
Wire Wire Line
	9500 3500 10050 3500
Wire Wire Line
	8950 4100 9500 4100
Wire Wire Line
	9500 3500 9500 1700
Wire Wire Line
	9500 1300 8950 1300
Connection ~ 9500 3500
Wire Wire Line
	10100 1600 9550 1600
Connection ~ 9550 1600
Wire Wire Line
	9550 1600 9550 3400
Wire Wire Line
	10100 1700 9500 1700
Connection ~ 9500 1700
Wire Wire Line
	9500 1700 9500 1300
$Comp
L dipmulator:GND #PWR0132
U 1 1 60410DF6
P 10100 1500
F 0 "#PWR0132" H 10100 1500 30  0001 C CNN
F 1 "GND" H 10100 1430 30  0001 C CNN
F 2 "" H 10100 1500 60  0000 C CNN
F 3 "" H 10100 1500 60  0000 C CNN
	1    10100 1500
	0    1    -1   0   
$EndComp
$Comp
L dipmulator:VCC #PWR0133
U 1 1 60412D33
P 9900 1400
F 0 "#PWR0133" H 9900 1500 30  0001 C CNN
F 1 "VCC" H 9914 1538 30  0000 C CNN
F 2 "" H 9900 1400 60  0000 C CNN
F 3 "" H 9900 1400 60  0000 C CNN
	1    9900 1400
	0    -1   1    0   
$EndComp
Wire Wire Line
	9900 1400 10100 1400
Wire Wire Line
	2150 1000 1850 1000
Text Label 1850 1000 0    50   ~ 0
VCC_TGT
$Comp
L dipmulator:RSMALL R1
U 1 1 604676FC
P 2300 1000
F 0 "R1" H 2300 1050 30  0000 C CNN
F 1 "0R" H 2300 1000 30  0000 C CNN
F 2 "f4libs_smd:0603_m1608" H 2300 1106 60  0001 C CNN
F 3 "" H 2300 1000 60  0000 C CNN
F 4 "WR06X000 PTL" H 2300 1000 50  0001 C CNN "Product"
F 5 "farnell://2502392" H 2300 1000 50  0001 C CNN "SKU"
	1    2300 1000
	1    0    0    -1  
$EndComp
$Comp
L dipmulator:VCC #PWR0134
U 1 1 60478B2A
P 2650 900
F 0 "#PWR0134" H 2650 1000 30  0001 C CNN
F 1 "VCC" H 2664 1038 30  0000 C CNN
F 2 "" H 2650 900 60  0000 C CNN
F 3 "" H 2650 900 60  0000 C CNN
	1    2650 900 
	0    1    1    0   
$EndComp
Wire Wire Line
	2650 900  2550 900 
Wire Wire Line
	2550 900  2550 1000
Wire Wire Line
	2550 1000 2450 1000
Wire Wire Line
	6900 4800 7100 4800
$Comp
L dipmulator:VCC #PWR0135
U 1 1 5FDC509C
P 9150 2000
F 0 "#PWR0135" H 9150 2100 30  0001 C CNN
F 1 "VCC" H 9164 2138 30  0000 C CNN
F 2 "" H 9150 2000 60  0000 C CNN
F 3 "" H 9150 2000 60  0000 C CNN
	1    9150 2000
	0    1    -1   0   
$EndComp
Wire Wire Line
	9150 2000 8950 2000
$Comp
L dipmulator:VCC #PWR0136
U 1 1 5FDD6359
P 9150 4800
F 0 "#PWR0136" H 9150 4900 30  0001 C CNN
F 1 "VCC" H 9164 4938 30  0000 C CNN
F 2 "" H 9150 4800 60  0000 C CNN
F 3 "" H 9150 4800 60  0000 C CNN
	1    9150 4800
	0    1    -1   0   
$EndComp
Wire Wire Line
	8950 4800 9150 4800
Wire Wire Line
	8950 2500 9050 2500
Wire Wire Line
	9050 2500 9050 2600
Connection ~ 9050 2600
Wire Wire Line
	9050 2600 9150 2600
Connection ~ 9050 5500
Wire Wire Line
	9050 5500 9050 5750
Text Notes 6850 2000 0    50   ~ 0
BUS_D3
Text Notes 6850 2100 0    50   ~ 0
BUS_D4
Text Notes 6850 2200 0    50   ~ 0
BUS_D5
Text Notes 6850 2300 0    50   ~ 0
BUS_D6
Text Notes 6850 2400 0    50   ~ 0
BUS_D7
Text Notes 6850 2500 0    50   ~ 0
BUS_D0
Text Notes 6850 2600 0    50   ~ 0
BUS_D1
Text Notes 6850 2700 0    50   ~ 0
BUS_D2
Text Notes 6850 1800 0    50   ~ 0
BUS_A0
Text Notes 6850 1700 0    50   ~ 0
BUS_A2
Text Notes 6850 1600 0    50   ~ 0
BUS_A1
Text Notes 6850 1500 0    50   ~ 0
BUS_A3
Text Notes 6850 1400 0    50   ~ 0
BUS_A5
Text Notes 6850 1300 0    50   ~ 0
BUS_A6
Text Notes 6850 1200 0    50   ~ 0
BUS_A4
Text Notes 6850 1100 0    50   ~ 0
BUS_A7
Text Notes 6850 3900 0    50   ~ 0
BUS_A8
Text Notes 6850 4000 0    50   ~ 0
BUS_A9
Text Notes 6850 4100 0    50   ~ 0
BUS_A10
Text Notes 6850 4200 0    50   ~ 0
BUS_A11
Text Notes 6850 4300 0    50   ~ 0
BUS_A13
Text Notes 6850 4400 0    50   ~ 0
BUS_A14
Text Notes 6850 4500 0    50   ~ 0
BUS_A12
NoConn ~ 7550 4900
NoConn ~ 7550 5000
NoConn ~ 7550 5100
NoConn ~ 7550 5200
$Comp
L dipmulator:I2C_EEPROM U10
U 1 1 5FCF3113
P 10450 3100
F 0 "U10" H 10450 3287 60  0000 C CNN
F 1 "M24256" H 10450 3181 60  0000 C CNN
F 2 "Package_SO:TSSOP-8_4.4x3mm_P0.65mm" H 10450 3181 60  0001 C CNN
F 3 "" H 10450 3100 60  0000 C CNN
F 4 "M24256-BRDW6TP" H 10450 3100 50  0001 C CNN "Product"
F 5 "farnell://2849941" H 10450 3100 50  0001 C CNN "SKU"
	1    10450 3100
	-1   0    0    -1  
$EndComp
NoConn ~ 10050 3300
Entry Wire Line
	6700 4500 6800 4400
Wire Wire Line
	7550 4500 6800 4500
Wire Wire Line
	7550 4400 6800 4400
$Comp
L dipmulator:MCP23S17_ML U6
U 1 1 5FC7182B
P 8250 4700
F 0 "U6" H 8400 5800 50  0000 C CNN
F 1 "MCP23S17_ML" H 8600 5700 50  0000 C CNN
F 2 "dipmulator:QFN-28-NOEP_6x6mm_P0.65mm" H 8450 3700 50  0001 L CNN
F 3 "http://ww1.microchip.com/downloads/en/DeviceDoc/20001952C.pdf" H 8450 3600 50  0001 L CNN
F 4 "MCP23S17T-E/ML" H 8250 4700 50  0001 C CNN "Product"
F 5 "farnell://2851560" H 8250 4700 50  0001 C CNN "SKU"
	1    8250 4700
	-1   0    0    -1  
$EndComp
Wire Wire Line
	7550 4600 7100 4600
Wire Wire Line
	7100 4600 7100 4800
NoConn ~ 7550 4800
$Comp
L dipmulator:PIN J2
U 1 1 5FE14D61
P 8100 3200
F 0 "J2" H 8073 3374 45  0000 C CNN
F 1 "PIN" H 8073 3290 45  0000 C CNN
F 2 "dipmulator:qfnbot" H 8073 3290 45  0001 C CNN
F 3 "" H 8100 3200 45  0000 C CNN
	1    8100 3200
	1    0    0    -1  
$EndComp
$Comp
L dipmulator:GND #PWR06
U 1 1 5FE1542A
P 8100 3200
F 0 "#PWR06" H 8100 3200 30  0001 C CNN
F 1 "GND" H 8100 3130 30  0001 C CNN
F 2 "" H 8100 3200 60  0000 C CNN
F 3 "" H 8100 3200 60  0000 C CNN
	1    8100 3200
	0    -1   1    0   
$EndComp
$Comp
L dipmulator:PIN J3
U 1 1 5FE165E7
P 8500 5850
F 0 "J3" H 8473 6024 45  0000 C CNN
F 1 "PIN" H 8473 5940 45  0000 C CNN
F 2 "dipmulator:qfnbot" H 8473 5940 45  0001 C CNN
F 3 "" H 8500 5850 45  0000 C CNN
	1    8500 5850
	1    0    0    -1  
$EndComp
$Comp
L dipmulator:GND #PWR07
U 1 1 5FE16803
P 8500 5850
F 0 "#PWR07" H 8500 5850 30  0001 C CNN
F 1 "GND" H 8500 5780 30  0001 C CNN
F 2 "" H 8500 5850 60  0000 C CNN
F 3 "" H 8500 5850 60  0000 C CNN
	1    8500 5850
	0    -1   1    0   
$EndComp
Wire Bus Line
	4300 5700 4300 7350
Wire Bus Line
	600  1200 600  2500
Wire Bus Line
	2300 1200 2300 2500
Wire Bus Line
	4950 5700 4950 7250
Wire Bus Line
	6700 5700 6700 7350
Wire Bus Line
	2300 2500 2300 7350
Wire Bus Line
	4300 1200 4300 5700
Wire Bus Line
	6700 1200 6700 5700
$EndSCHEMATC
