(module qfnbot (layer F.Cu) (tedit 5FDBE99F)
  (fp_text reference REF** (at 0 0.5) (layer F.SilkS)
    (effects (font (size 1 1) (thickness 0.15)))
  )
  (fp_text value qfnbot (at 0 -0.5) (layer F.Fab)
    (effects (font (size 1 1) (thickness 0.15)))
  )
  (pad 1 thru_hole circle (at 0 0) (size 2 2) (drill 1) (layers F.Cu F.Mask))
)
